{
  "matches": {
    "1": {
      "time": "2017-02-16T05:57:41.678Z",
      "sideA": {
        "0": "1",
        "1": "3"
      },
      "sideB": {
        "0": "2",
        "1": "5"
      }
    }
  },
  "players": {
    "1": "Josh",
    "2": "Andy",
    "3": "Sarah",
    "4": "Clarence",
    "5": "Whitney"
  }
}